…
    filter, lag

 
The following objects are masked from ‘package:base’:

    intersect, setdiff, setequal, union

 
> iris <- dp_get_connection(dp, "iris")
> iris |> 
+   filter(Species == 2, Sepal.Length > 4) |> 
+   mutate(ratio = Sepal.Length/Sepal.Width) |>
+   collect()
# A tibble: 50 × 6
   Sepal.Length Sepal.Width Petal.Length Petal.Width Species ratio
 *        <dbl>       <dbl>        <dbl>       <dbl>   <int> <dbl>
 1          7           3.2          4.7         1.4       2  2.19
 2          6.4         3.2          4.5         1.5       2  2   
 3          6.9         3.1          4.9         1.5       2  2.23
 4          5.5         2.3          4           1.3       2  2.39
 5          6.5         2.8          4.6         1.5       2  2.32
 6          5.7         2.8          4.5         1.3       2  2.04
 7          6.3         3.3          4.7         1.6       2  1.91
 8          4.9         2.4          3.3         1         2  2.04
 9          6.6         2.9          4.6         1.3       2  2.28
10          5.2         2.7          3.9         1.4       2  1.93
# ℹ 40 more rows
```
…
